<?xml version="1.0" standalone="no"?>
<!DOCTYPE svg PUBLIC "-//W3C//DTD SVG 20010904//EN"
 "http://www.w3.org/TR/2001/REC-SVG-20010904/DTD/svg10.dtd">
<svg version="1.0" xmlns="http://www.w3.org/2000/svg"
 width="500.000000pt" height="500.000000pt" viewBox="0 0 500.000000 500.000000"
 preserveAspectRatio="xMidYMid meet">
<metadata>
Created by potrace 1.11, written by Peter Selinger 2001-2013
</metadata>
<g transform="translate(0.000000,500.000000) scale(0.100000,-0.100000)"
fill="#000000" stroke="none">
<path d="M630 4522 c0 -11 7 -54 16 -94 12 -59 15 -140 14 -418 l0 -346 30
-46 c27 -40 29 -49 19 -77 -9 -25 -8 -36 5 -56 31 -48 64 -33 217 100 169 147
196 184 183 251 -13 68 -140 157 -266 184 -54 12 -56 14 -61 49 -2 20 -4 101
-3 181 1 116 5 152 19 179 37 74 10 104 -99 109 -69 4 -74 3 -74 -16z m274
-614 c49 -16 70 -28 77 -44 12 -35 -8 -89 -44 -117 -17 -14 -41 -33 -52 -44
-29 -27 -111 -93 -116 -93 -2 0 -3 19 -2 42 1 24 3 95 3 158 1 63 4 118 6 122
6 9 47 1 128 -24z"/>
<path d="M2645 4212 c-72 -22 -145 -58 -150 -75 -2 -7 -6 -120 -9 -252 -4
-132 -8 -256 -10 -275 -2 -19 -7 -71 -10 -115 -4 -44 -8 -91 -11 -105 -2 -14
-11 -81 -20 -150 -8 -69 -17 -136 -19 -150 -3 -14 -7 -47 -11 -75 -3 -27 -15
-113 -26 -190 -11 -77 -21 -153 -23 -170 -15 -116 -19 -142 -22 -160 -2 -11
-7 -70 -10 -131 -8 -126 -6 -129 60 -125 77 4 637 135 728 170 29 11 38 6 38
-19 0 -24 36 -68 71 -85 62 -32 170 -23 240 21 46 29 106 98 121 141 12 32 28
45 28 22 0 -20 51 -114 78 -143 50 -54 115 -66 168 -31 89 58 252 296 289 423
15 53 -43 15 -178 -117 -37 -36 -73 -68 -79 -70 -12 -4 -4 129 11 203 5 23 12
73 15 113 7 69 6 73 -18 88 -31 21 -109 22 -140 2 -12 -8 -62 -82 -110 -164
-92 -153 -175 -275 -209 -306 -72 -63 -102 62 -57 238 37 145 102 246 200 311
45 30 98 35 196 20 67 -11 76 3 37 57 -106 152 -333 172 -466 42 -91 -91 -151
-241 -191 -485 -9 -52 -18 -105 -21 -117 -6 -24 -35 -34 -299 -103 -168 -44
-210 -50 -228 -32 -12 12 -14 76 -5 157 3 28 9 79 12 115 3 36 8 72 10 80 2 8
6 46 10 83 3 37 8 76 9 85 2 9 7 44 11 77 4 32 9 68 11 78 2 11 6 39 8 62 5
43 33 236 41 285 3 14 7 50 10 80 3 30 7 75 10 100 3 25 10 87 15 137 15 139
60 254 143 373 l46 65 -27 14 c-43 23 -196 24 -267 3z"/>
<path d="M1512 3973 c-13 -11 -30 -51 -46 -109 -27 -97 -61 -166 -106 -214
-63 -68 -77 -26 -55 165 13 121 14 144 4 150 -14 9 -139 15 -140 7 0 -4 -3
-27 -7 -52 -8 -61 -8 -216 1 -263 27 -141 134 -165 233 -53 32 37 42 44 35 25
-43 -118 -74 -405 -51 -488 17 -64 67 -111 118 -111 79 0 138 64 168 182 19
78 25 273 12 399 l-7 65 49 52 c33 35 50 61 50 78 0 21 -3 23 -20 14 -10 -6
-23 -17 -27 -24 -4 -8 -22 -22 -38 -30 -28 -15 -31 -15 -43 2 -8 11 -12 43
-11 90 2 60 -2 78 -18 100 -25 33 -71 40 -101 15z m102 -321 c24 -141 23 -287
-2 -377 -22 -80 -61 -167 -79 -173 -6 -2 -15 7 -19 20 -7 24 -8 190 0 217 3 9
8 43 11 76 4 33 15 101 25 152 28 132 52 164 64 85z"/>
<path d="M1030 3064 c-143 -51 -330 -233 -563 -546 -32 -43 -61 -78 -66 -78
-13 0 -21 38 -21 102 0 58 19 128 63 232 43 101 23 152 -77 197 -73 32 -222
43 -324 24 -33 -6 -34 -8 -28 -43 3 -20 8 -46 11 -57 2 -11 21 -96 40 -190
l36 -170 -1 -485 c-1 -267 -2 -627 -3 -800 -2 -359 -6 -341 94 -466 l48 -60
-24 -40 c-31 -49 -32 -104 -4 -162 25 -51 54 -66 120 -60 59 6 118 46 274 184
66 58 164 142 218 186 124 101 203 180 272 272 61 82 75 122 70 206 -7 109
-32 133 -291 276 -79 44 -143 81 -143 84 -1 3 25 32 55 65 120 129 270 348
345 500 45 94 92 227 108 305 6 30 13 69 17 85 3 17 8 80 10 140 5 154 -23
259 -78 294 -33 20 -109 23 -158 5z m-75 -244 c28 -89 -84 -470 -201 -681 -80
-145 -219 -316 -327 -401 l-39 -31 6 69 c12 133 73 362 136 510 11 24 19 45
18 47 -3 6 112 219 147 271 53 81 140 173 195 207 54 34 57 35 65 9z m-365
-1299 c91 -27 185 -52 209 -56 62 -10 105 -51 103 -99 -3 -75 -60 -150 -211
-276 -30 -25 -61 -52 -70 -61 -9 -8 -63 -55 -121 -105 -58 -49 -113 -97 -124
-106 -10 -10 -23 -15 -28 -12 -9 6 1 676 11 757 2 17 77 4 231 -42z"/>
<path d="M1837 3044 c-66 -17 -109 -53 -168 -141 -117 -173 -213 -408 -288
-708 -28 -113 -75 -345 -87 -424 -3 -20 -7 -47 -9 -61 -8 -42 -23 -147 -30
-210 -3 -25 -8 -61 -10 -80 -25 -185 -25 -527 -1 -638 31 -145 89 -231 176
-256 142 -42 302 39 419 212 45 67 101 177 101 202 1 8 13 -12 29 -45 56 -122
153 -185 290 -190 109 -4 176 23 252 104 53 55 139 203 139 237 0 30 18 12 29
-28 20 -77 73 -160 127 -197 46 -31 53 -33 114 -28 40 3 83 14 110 29 45 23
124 95 173 158 21 27 29 31 34 20 3 -8 23 -32 45 -53 49 -46 91 -50 138 -10
63 53 201 225 378 471 l82 114 0 -231 c0 -208 2 -236 19 -269 34 -66 107 -114
160 -106 68 12 192 135 350 349 97 131 94 128 86 75 -13 -93 -16 -116 -20
-140 -2 -14 -14 -86 -26 -160 -26 -168 -26 -186 3 -217 39 -42 87 -61 148 -58
73 4 138 35 201 98 88 90 199 280 199 342 0 29 -13 32 -32 7 -12 -16 -156
-139 -222 -190 -32 -25 -47 -28 -41 -9 2 6 6 46 9 87 4 41 8 86 11 100 6 39
24 178 31 245 3 33 7 74 9 90 9 75 7 163 -4 183 -7 13 -21 22 -36 22 -37 0
-106 -30 -139 -59 -33 -30 -223 -266 -316 -393 -35 -48 -65 -86 -66 -85 -1 1
-5 76 -8 167 -7 177 -21 315 -36 355 -19 49 -62 52 -184 15 -39 -12 -77 -32
-94 -48 -26 -27 -122 -128 -270 -284 l-72 -77 7 82 c13 136 8 297 -10 338 -13
31 -24 40 -72 58 -66 25 -152 29 -184 10 -31 -20 -39 -67 -39 -209 1 -127 -18
-272 -48 -363 -29 -88 -129 -197 -180 -197 -17 0 -25 9 -34 36 -12 36 -15 209
-6 293 8 65 16 123 21 151 3 14 7 34 9 45 2 11 25 85 52 165 45 138 56 190 47
217 -9 23 -94 47 -164 46 -73 0 -119 -20 -119 -51 0 -15 -106 -340 -129 -397
-5 -11 -21 -54 -36 -95 -120 -333 -233 -570 -269 -570 -22 0 -38 54 -35 116 4
98 37 227 159 624 28 91 53 186 57 212 5 44 3 50 -27 78 -18 16 -53 36 -79 44
-55 16 -149 14 -179 -5 -14 -9 -40 -59 -73 -144 -98 -247 -258 -588 -351 -749
-111 -191 -260 -376 -302 -376 -69 0 -64 221 13 603 17 82 25 103 51 130 114
116 272 416 363 687 151 446 207 757 155 855 -37 70 -184 109 -301 79z m129
-320 c10 -41 -27 -266 -70 -429 -2 -5 -6 -23 -11 -40 -75 -289 -203 -637 -248
-673 -14 -12 -17 -10 -23 12 -5 23 1 119 11 156 2 8 6 33 10 55 28 189 162
667 231 824 27 59 69 121 84 121 5 0 13 -12 16 -26z"/>
</g>
</svg>
